{
	"name": "KDELogin",
	"version": "0.0.1",
	"author": [
		"Ingo Malchow"
	],
	"url": "",
	"descriptionmsg": "kdelogin-desc",
	"license-name": "MIT",
	"type": "specialpage",
	"ExtensionMessagesFiles": {
		"KDELoginAlias": "KDELogin.alias.php"
	},
	"MessagesDirs": {
		"KDELogin": [
			"i18n"
		]
	},
	"Hooks": {
		"PersonalUrls": [
                    "KDELoginHooks::onPersonalUrls"
		],
		"UserLogout": [
                    "KDELoginHooks::onUserLogout"
		],
		"LoadExtensionSchemaUpdates": [
                    "KDELoginHooks::onLoadExtensionSchemaUpdates"
		]
	},
	"SpecialPages": {
		"KDELogin": "SpecialKDELogin"
	},
	"AutoloadClasses": {
		"SpecialKDELogin": "SpecialKDELogin.php",
		"KDELoginHooks": "KDELogin.hooks.php",
		"KDEProvider": "includes/KDEProvider.php",
		"KDEResourceOwner": "includes/KDEResourceOwner.php",
		"KDEUser": "includes/KDEUser.php"
	},
	"manifest_version": 1
}
